[  
   {  
      "id":"vvd",
      "party":"VVD",
      "query":"(speech:\"mark rutte\" OR speech:VVD OR (speech:volkspartij AND speech:vrijheid AND speech:democratie WITHIN 1200)) AND (stream:stream0001 OR stream:stream0002 OR stream:stream0003 OR stream:stream0004 OR stream:stream0006)",
      "name":"VVD",
      "surname": "VVD"
   },
   {  
      "id":"pvda",
      "party":"PvdA",
      "query":"(speech:\"lodewijk assher\" OR speech:PvdA OR (speech:partij AND speech:arbeid WITHIN 1000)) AND (stream:stream0001 OR stream:stream0002 OR stream:stream0003 OR stream:stream0004 OR stream:stream0006)",
      "name":"PvdA",
      "surname": "PvdA"
   },
   {  
      "id":"pvv",
      "party":"PVV",
      "query":"(speech:\"geert wilders\" OR speech:pvv OR speech:\"Partij voor de Vrijheid\") AND (stream:stream0001 OR stream:stream0002 OR stream:stream0003 OR stream:stream0004 OR stream:stream0006)",
      "name":"PVV",
      "surname": "PVV"
   },
   {  
      "id":"sp",
      "party":"SP",
      "query":"(speech:\"lilian marijnissen\" OR speech:\"lillian marijnissen\" OR speech:SP OR speech:\"socialistische partij\") AND (stream:stream0001 OR stream:stream0002 OR stream:stream0003 OR stream:stream0004 OR stream:stream0006)",
      "name":"SP",
      "surname": "SP"
   },
   {  
      "id":"cda",
      "party":"CDA",
      "query":"(speech:\"sybrand buma\" OR speech:CDA OR speech:christdemocratisch*) AND (stream:stream0001 OR stream:stream0002 OR stream:stream0003 OR stream:stream0004 OR stream:stream0006)",
      "name":"CDA",
      "surname": "CDA"
   },
   {  
      "id":"d66",
      "party":"D66",
      "query":"(speech:\"alexander pechtold\" OR speech:d66) AND (stream:stream0001 OR stream:stream0002 OR stream:stream0003 OR stream:stream0004 OR stream:stream0006)",
      "name":"D66",
      "surname": "D66"
   },
   {  
      "id":"christenunie",
      "party":"ChristenUnie",
      "query":"(speech:\"gert jan segers\" OR speech:\"gert-jan segers\" OR speech:\"gertjan segers\" OR speech:christenunie OR speech:\"christen unie\") AND (stream:stream0001 OR stream:stream0002 OR stream:stream0003 OR stream:stream0004 OR stream:stream0006)",
      "name":"ChristenUnie",
      "surname": "ChristenUnie"
   },
   {  
      "id":"groenlinks",
      "party":"GroenLinks",
      "query":"(speech:\"jesse klaver\" OR speech:groenlinks OR speech:\"groen links\") AND (stream:stream0001 OR stream:stream0002 OR stream:stream0003 OR stream:stream0004 OR stream:stream0006)",
      "name":"GroenLinks",
      "surname": "GroenLinks"
   },
   {  
      "id":"sgp",
      "party":"SGP",
      "query":"((speech:kees ANd speech:staaij WITHIN 1000) OR speech:SGP) AND (stream:stream0001 OR stream:stream0002 OR stream:stream0003 OR stream:stream0004 OR stream:stream0006)",
      "name":"SGP",
      "surname": "SGP"
   },
   {  
      "id":"pvdd",
      "party":"Partij voor de Dieren",
      "query":"(speech:\"marianne thieme\" OR (speech:partij AND speech:dieren WITHIN 1500)) AND (stream:stream0001 OR stream:stream0002 OR stream:stream0003 OR stream:stream0004 OR stream:stream0006)",
      "name":"Marianne Thieme",
      "surname": "Thieme"
   },
   {  
      "id":"50plus",
      "party":"50PLUS",
      "query":"(speech:\"henk krol\" OR speech:50plus OR speech:\"50 plus\" OR speech:\"vijftig plus\") AND (stream:stream0001 OR stream:stream0002 OR stream:stream0003 OR stream:stream0004 OR stream:stream0006)",
      "name":"50PLUS",
      "surname": "50PLUS"
   },
   {  
      "id":"denk",
      "party":"DENK",
      "query":"(speech:denk AND speech:partij WITHIN 500) AND (stream:stream0001 OR stream:stream0002 OR stream:stream0003 OR stream:stream0004 OR stream:stream0006)",
      "name":"DENK",
      "surname": "DENK"
   },
   {  
      "id":"fvd",
      "party":"Forum voor Democratie",
      "query":"(speech:\"Thierry Baudet\" OR (speech:cherry AND speech:baudet WITHIN 1000) OR (speech:forum AND speech:democratie WITHIN 1000)) AND (stream:stream0001 OR stream:stream0002 OR stream:stream0003 OR stream:stream0004 OR stream:stream0006)",
      "name":"Forum voor Democratie",
      "surname": "Forum voor Democratie"
   }
]