<?xml version="1.0" standalone="no"?>
<!DOCTYPE svg PUBLIC "-//W3C//DTD SVG 1.1//EN" "http://www.w3.org/Graphics/SVG/1.1/DTD/svg11.dtd" >
<!--
2016-7-27: Created.
-->
<svg xmlns="http://www.w3.org/2000/svg">
<metadata>
Created by FontForge 20120731 at Wed Jul 27 16:22:49 2016
 By Apache
Created by Apache with FontForge 2.0 (http://fontforge.sf.net)
</metadata>
<defs>
<font id="Flaticon" horiz-adv-x="200" >
  <font-face 
    font-family="Flaticon"
    font-weight="500"
    font-stretch="normal"
    units-per-em="512"
    panose-1="2 0 6 3 0 0 0 0 0 0"
    ascent="448"
    descent="-64"
    bbox="0 -64 512 448"
    underline-thickness="25.6"
    underline-position="-51.2"
    unicode-range="U+0020-F100"
  />
    <missing-glyph />
    <glyph glyph-name="space" unicode=" " 
 />
    <glyph glyph-name="uniF100" unicode="&#xf100;" horiz-adv-x="512" 
d="M349.148 312.064c35.8027 -27.8379 58.8809 -71.3047 58.8818 -120.064c0 -83.8281 -68.2002 -152.028 -152.028 -152.028s-152.027 68.1992 -152.027 152.028c0 35.7812 12.4307 68.708 33.1934 94.7061l41.0742 -44.0527
c-9.5293 -14.5791 -15.0928 -31.9736 -15.0928 -50.6523c0 -51.1992 41.6543 -92.8525 92.8525 -92.8525s92.8516 41.6533 92.8516 92.8525s-41.6523 92.8525 -92.8516 92.8525c-16.3613 0 -31.7383 -4.26953 -45.1035 -11.7295l-41.0713 44.0508
c24.5088 16.9238 54.2021 26.8545 86.1748 26.8545c24.6074 0 47.8633 -5.88379 68.4473 -16.3066c-8.30273 -2.31738 -14.3994 -9.91602 -14.3994 -18.9561c0 -10.8799 8.81934 -19.6982 19.6982 -19.6982c10.8799 0 19.6982 8.81836 19.6982 19.6982
c0 1.12598 -0.116211 2.22363 -0.297852 3.29785zM349.445 95.5195c10.8799 0 19.6992 8.82031 19.6982 19.6982c0 10.8789 -8.81836 19.6982 -19.6982 19.6982c-10.8789 0 -19.6982 -8.81934 -19.6982 -19.6982s8.81934 -19.6982 19.6982 -19.6982zM256.006 169.668
c5.45312 0 10.9219 1.98535 15.2246 5.99707c9.02148 8.41113 9.51465 22.542 1.10449 31.5635l-29.1133 31.2256c4.07324 1.12109 8.35547 1.73242 12.7793 1.73242c26.5703 0 48.1865 -21.6162 48.1865 -48.1875s-21.6162 -48.1875 -48.1865 -48.1875
c-26.5713 0 -48.1875 21.6162 -48.1875 48.1875c0 5.60645 0.972656 10.9873 2.74023 15.9971l29.1133 -31.2256c4.39844 -4.71777 10.3604 -7.10254 16.3389 -7.10254zM256 448c141.386 0 256 -114.615 256 -256s-114.615 -256 -256 -256s-256 114.615 -256 256
s114.615 256 256 256zM256.001 -4.69434c108.458 0 196.694 88.2373 196.694 196.693s-88.2354 196.692 -196.693 196.692c-51.0869 0 -97.6836 -19.583 -132.69 -51.6299c-0.487305 -0.385742 -0.972656 -0.77832 -1.43457 -1.20898
c-0.449219 -0.418945 -0.859375 -0.861328 -1.2666 -1.30664c-18.8076 -17.873 -34.084 -39.4219 -44.6875 -63.4756c-3.18652 6.58984 -9.91504 11.1475 -17.7256 11.1475c-10.8789 0 -19.6982 -8.81934 -19.6982 -19.6982c0 -10.8799 8.81934 -19.6992 19.6982 -19.6992
c2.96191 0 5.76172 0.672852 8.28223 1.84375c-4.66699 -16.7695 -7.1709 -34.4287 -7.1709 -52.665c0 -62.7734 29.5586 -118.771 75.4873 -154.809c-9.78906 -1.14453 -17.3896 -9.45508 -17.3896 -19.5518c0 -10.8799 8.81934 -19.6982 19.6982 -19.6982
s19.6982 8.81836 19.6982 19.6982c0 1.7168 -0.242188 3.37402 -0.655273 4.96289c29.2881 -17.3301 63.4258 -27.2959 99.8535 -27.2959z" />
  </font>
</defs></svg>
